fUw56Ea_-81934048
tTzL33Qo-04108872
7UdbgjwN-35217778
a0cqjQON-60205707
c1exP0NW-07582936
0qYYteBM-52464145

sBnuV62O-23330274

z8XobmTa-51984500

7IBqtPeQ-08023149
YQRAdTyu-58930963

eoOV9KIs-60567325

b87MKVds-01554663
yXFvaD4H-34790378
O6RhNnR3-33059967

kObJLjB8-74697889

2gUunJCR-46565376

YiJxhSiB-24643531

bHmEkIPc-56839028

ARaXf6DT-49253781

WUgn3s2a-05187593

MudRtChG-89559871

nabTxzCH-59932698

zL0zL9bX-29894185

VF8qJIcY-93517933

OPKJGngX-40409303

yTLHlRD8-63671282

7wB7AuV1-16170132

6agfOzTP-81126219
