25

5
7kIs2Mdz-65951032
ha4WYECW-91240175
4rKNXfuM-83312415
1ntISBPw-61357450
p1klJaVB-98022944
4 2 5 3 1
2 1 3 4 5
1 5 4 3 2
4 1 2 5 3
1 2 3 4 5

2
1reLIrvi-86691044
ZnyVtUz4-97159825
2 1
2 1
1 2

4
hAc1OIsh-03724315
2G3ftutH-75205533
zdTqYpCW-17759853
RJVW3MPv-08606201
1 2 4 3
4 2 1 3

5
7bMTe6i2-83591104
AQtWJlOg-48522726
GLO5sVBz-42735056
OeaQorDR-21693680
rSxivoH9-98044153
1 5 2 4 3
3 1 2 5 4
4 3 2 1 5
4 3 1 5 2
4 1 5 3 2
5 3 1 4 2
1 2 5 4 3
1 2 3 4 5
1 3 2 4 5

5
_tWnRUYk-53475243
oTnuyxs8-19956513
imTqC8oL-55207341
PICxmB9j-16639155
va3AmUgw-64932150
1 2 3 4 5
1 2 3 4 5
1 2 3 4 5

3
SgkO2rI6-73804690
Gfj6atyV-48844051
fJdKcova-40024600
1 3 2
1 2 3
2 3 1

4
PC9tYH8j-56058970
juTDb9mx-75546491
ts5_1mgh-00727025
MMBnpNGj-12353383
2 1 4 3
2 3 1 4
2 1 3 4
2 3 4 1
1 4 3 2
2 4 1 3

4
X43awSPN-64770852
q5SIyN18-62958628
gcEaP1Du-18396121
WZESkDCz-77799535
2 1 3 4

5
vaPzzSZJ-29672375
8dvlyLB5-52647005
scVl5Lk0-72928113
Mf7wCygl-58653295
X6UX8hDg-20595311
2 3 5 4 1
1 3 2 4 5
1 3 4 2 5
3 5 4 2 1
1 2 3 4 5
4 2 3 5 1
3 2 4 5 1
4 5 1 2 3
5 1 3 4 2
5 4 2 1 3

1
Gcp8ex4M-47915291
1
1
1
1
1

2
MriSYRWX-62281273
PPhAbukj-40920134
2 1
2 1
2 1
1 2
1 2
1 2
1 2

1
pd_Nwz62-97133929
1

1
WxkJym5p-09026874
1
1
1
1

1
RYio3O0D-16949178
1
1
1
1
1
1
1
1
1

4
OIPUr7Kp-60683988
YmRFoEdu-03919844
wtAn6hEx-15688190
jmtygJuH-81641207
3 4 2 1
2 1 4 3

2
ZVWyGLjz-96277116
qu5z0K7F-71730203
1 2
1 2
2 1
2 1
1 2
1 2
1 2
1 2
2 1
1 2

2
AgfHYMj7-96745938
t9paXAvT-70914438
1 2
1 2
2 1
1 2
2 1
2 1
2 1
2 1
2 1
2 1

5
ulckE5f5-50075595
yae3p4Tt-32291021
fSvEt3ga-34037451
eCwM9YX1-21152065
9CfDJv3a-97122881
3 2 4 1 5
1 5 4 3 2
2 1 4 5 3
2 4 5 1 3
3 4 2 1 5
1 3 2 4 5
1 5 2 4 3
4 2 3 5 1

1
38B9ZHF9-78967714
1
1
1
1
1
1
1
1
1
1

5
8tE9JrX9-99448307
z33I5FDT-74803316
c35EQztY-79738502
l0BQZKZS-71763686
tBnKJfbX-60546431
1 2 5 4 3

2
tOYWIdU0-97845380
GzhaPQMX-62577997
1 2
2 1

1
8nb6aQo9-01942144
1
1
1
1

1
ErlN3Reo-81413094
1
1
1

5
7QdIF3qs-88914563
0mNIaG2J-96243628
IlaTJPoL-67484530
YWlJ0ngb-00867664
2XCsDnLg-70419770
4 1 2 3 5
1 2 3 4 5
5 2 3 1 4
1 3 5 4 2
4 2 3 5 1
4 1 2 3 5
3 1 4 5 2
1 2 3 4 5
1 2 3 4 5

1
aTxqIaAy-05591591
1
1
1
1
1
1
1
