20

3
Sydney
Jac
Brinn
1 2 3
1 3 2
2 1 3
2 3 1
3 1 2

4
Sydney
Jac
Brinn
Camille
1 2 3 4
1 2 4 3
1 3 2 4
1 3 4 2
1 4 2 3

4
Sydney
Jac
Brinn
Camille
3 1 2 4
3 1 4 2
3 2 1 4
4 1 2 3
4 1 3 2

6
Jackie
Ally
Ava
Maddy
Cha
Bradyn
1 2 3 4 5 6
6 5 4 3 2 1
1 6 2 5 3 4
4 3 5 2 6 1
6 1 5 2 4 3
2 4 1 6 3 5
3 5 6 1 4 2
2 3 4 5 6 1
5 4 3 2 1 6
3 6 4 1 5 2

6
Jackie
Ally
Ava
Maddy
Cha
Bradyn
1 2 3 4 5 6
6 5 4 3 2 1
1 6 2 5 3 4
4 3 5 2 6 1
6 1 5 2 4 3
2 4 1 6 3 5
3 5 6 1 4 2
2 3 4 5 6 1
5 4 3 2 1 6
3 6 4 1 5 2
5 1 3 6 2 4
6 2 4 1 5 3
4 6 1 3 2 5
5 3 6 4 1 2
2 5 3 1 6 4

3
Dana
Lamar
Sydney
1 2 3
1 3 2
2 1 3
2 3 1
3 1 2
3 2 1
1 2 3
1 3 2
2 1 3
2 3 1
3 1 2
3 2 1

1
Sydney
1
1
1
1
1

2
Sydney
Ava
1 2
2 1
1 2
2 1
1 2
2 1
1 2
2 1
1 2
2 1
1 2
2 1

3
Taylor Swift
Kendrick Lamar
Remi Wolf
1 2 3
1 3 2
2 1 3
2 3 1
3 1 2
3 2 1
1 2 3

3
Taylor Swift
Kendrick Lamar
Remi Wolf
1 2 3
1 2 3
2 1 3
2 1 3
3 2 1
3 2 1

3
Willy Bojangles
Willy Eden
Willy Anthony
1 2 3
3 2 1

7
Sam Anthony
Timmy Anthony
Sam Baumgaurt
Ham Eden
Billy Oompla
Ham Baumgaurt
Steve Buckley
6 3 2 5 4 1 7
5 4 3 7 6 1 2
2 3 5 4 1 7 6
7 3 1 2 5 6 4
6 4 1 5 3 2 7
3 7 5 1 4 6 2
5 2 3 1 7 6 4

6
Jimmy Bojangles
Ham Anthony
Hank Meyers
Ham Babubarel
Willy Meyers
Cam Eden
6 4 2 3 1 5
6 1 4 3 2 5
3 5 2 4 1 6
4 2 3 1 5 6
4 3 1 5 2 6
6 2 1 5 3 4
3 5 6 2 1 4
5 2 4 3 6 1

3
Billy Smith
Sam Baumgaurt
Sam Anthony
1 3 2
3 2 1
3 1 2

8
Syd
Ava
Maddy
Brinn
Bradyn
Jackie
Ally
Cha
1 2 3 4 5 6 7 8
8 7 6 5 4 3 2 1
3 1 4 2 7 5 8 6

8
Syd
Ava
Maddy
Brinn
Bradyn
Jackie
Ally
Cha
1 2 3 4 5 6 7 8
8 7 6 5 4 3 2 1
3 1 4 2 7 5 8 6
5 3 7 1 6 8 2 4
4 6 2 8 1 7 3 5
7 8 1 5 4 2 6 3

8
Syd
Ava
Maddy
Brinn
Bradyn
Jackie
Ally
Cha
1 2 3 4 5 6 7 8
8 7 6 5 4 3 2 1
3 1 4 2 7 5 8 6
5 3 7 1 6 8 2 4
4 6 2 8 1 7 3 5
7 8 1 5 4 2 6 3
8 1 6 3 5 7 2 4
2 5 4 6 7 3 1 8
6 7 5 1 3 8 4 2

8
Syd
Ava
Maddy
Brinn
Bradyn
Jackie
Ally
Cha
1 2 3 4 5 6 7 8
8 7 6 5 4 3 2 1
3 1 4 2 7 5 8 6
5 3 7 1 6 8 2 4
4 6 2 8 1 7 3 5
7 8 1 5 4 2 6 3
8 1 6 3 5 7 2 4
2 5 4 6 7 3 1 8
6 7 5 1 3 8 4 2
3 7 1 6 8 4 2 5
5 4 8 1 6 3 7 2
2 8 5 7 3 1 4 6

8
Syd
Ava
Maddy
Brinn
Bradyn
Jackie
Ally
Cha
1 2 3 4 5 6 7 8
8 7 6 5 4 3 2 1
3 1 4 2 7 5 8 6
5 3 7 1 6 8 2 4
4 6 2 8 1 7 3 5
7 8 1 5 4 2 6 3
8 1 6 3 5 7 2 4
2 5 4 6 7 3 1 8
6 7 5 1 3 8 4 2
3 7 1 6 8 4 2 5
5 4 8 1 6 3 7 2
2 8 5 7 3 1 4 6
6 8 1 3 7 5 2 4
2 4 7 6 3 1 8 5
5 6 4 2 8 3 1 7

8
Syd
Ava
Maddy
Brinn
Bradyn
Jackie
Ally
Cha
1 2 3 4 5 6 7 8
8 7 6 5 4 3 2 1
3 1 4 2 7 5 8 6
5 3 7 1 6 8 2 4
4 6 2 8 1 7 3 5
7 8 1 5 4 2 6 3
8 1 6 3 5 7 2 4
